<?xml version="1.0" encoding="UTF-8" standalone="no"?>
<svg
   xmlns:dc="http://purl.org/dc/elements/1.1/"
   xmlns:cc="http://creativecommons.org/ns#"
   xmlns:rdf="http://www.w3.org/1999/02/22-rdf-syntax-ns#"
   xmlns:svg="http://www.w3.org/2000/svg"
   xmlns="http://www.w3.org/2000/svg"
   xmlns:sodipodi="http://sodipodi.sourceforge.net/DTD/sodipodi-0.dtd"
   xmlns:inkscape="http://www.inkscape.org/namespaces/inkscape"
   enable-background="new 0 0 64 64"
   height="64px"
   version="1.1"
   viewBox="0 0 64 64"
   width="64px"
   xml:space="preserve"
   id="svg24"
   sodipodi:docname="default-folder-open.svg"
   inkscape:version="0.92.4 (unknown)"><metadata
     id="metadata30"><rdf:RDF><cc:Work
         rdf:about=""><dc:format>image/svg+xml</dc:format><dc:type
           rdf:resource="http://purl.org/dc/dcmitype/StillImage" /><dc:title></dc:title></cc:Work></rdf:RDF></metadata><defs
     id="defs28" /><sodipodi:namedview
     pagecolor="#ffffff"
     bordercolor="#666666"
     borderopacity="1"
     objecttolerance="10"
     gridtolerance="10"
     guidetolerance="10"
     inkscape:pageopacity="0"
     inkscape:pageshadow="2"
     inkscape:window-width="1366"
     inkscape:window-height="717"
     id="namedview26"
     showgrid="false"
     inkscape:zoom="10.429825"
     inkscape:cx="24.739426"
     inkscape:cy="32.224328"
     inkscape:window-x="0"
     inkscape:window-y="23"
     inkscape:window-maximized="1"
     inkscape:current-layer="svg24" /><g
     id="Layer_2" /><g
     transform="matrix(0.00967697,0.88749906,-1.1343839,0.0401888,69.233236,-0.44149638)"
     id="Layer_1-5-3"
     style="fill:#6c5353"><g
       id="g4-3-6"
       style="fill:#6c5353" /><g
       style="opacity:0.2;fill:#6c5353"
       id="g10-5-7"><g
         id="g8-6-5"
         style="fill:#6c5353" /></g><g
       id="g16-2-3"
       style="fill:#6c5353"><g
         id="g14-9-5"
         style="fill:#6c5353" /></g><g
       id="g20-2-2"
       style="fill:#6c5353" /></g><g
     transform="matrix(0.00767154,0.91708398,-0.8992975,-0.13656569,57.978555,7.7253925)"
     id="Layer_1-5"
     style="fill:#ffaaaa"><g
       id="g4-3"
       style="fill:#ffaaaa" /><g
       style="opacity:0.2;fill:#ffaaaa"
       id="g10-5"><g
         id="g8-6"
         style="fill:#ffaaaa" /></g><g
       id="g16-2"
       style="fill:#ffaaaa"><g
         id="g14-9"
         style="fill:#ffaaaa"><g
           id="g886"
           transform="translate(0.17255536,1.383715)"><path
             inkscape:connector-curvature="0"
             id="path12-1-6"
             d="m 18.978516,12.089844 c -1.006814,0.06623 -1.759264,0.950738 -1.75,2.158203 l 0.269531,34.998047 c 0.01059,1.379959 1.010276,2.66482 2.232422,2.867187 l 17.708984,2.931641 2.248047,0.373047 2.179688,0.359375 2.21289,0.367187 c 1.222145,0.202367 2.205899,-0.752853 2.195313,-2.132812 l -0.0957,-12.5 c -0.01059,-1.37996 -1.01223,-2.664821 -2.234376,-2.867188 0,0 -2.032279,-0.659921 -2.232421,-2.865234 l -0.0039,-0.417969 -0.130859,-17.082031 c -0.01059,-1.37996 -0.97512,-2.658961 -2.197266,-2.861328 L 19.423828,12.113281 c -0.152768,-0.0253 -0.301482,-0.0329 -0.445312,-0.02344 z"
             style="fill:#527bff;stroke-width:0.94769651;fill-opacity:1"
             transform="matrix(-0.4186481,-1.4062341,0.97060694,0.00827985,7.7625292,72.108869)" /><path
             inkscape:connector-curvature="0"
             id="path12-1"
             d="m 12.073469,46.19227 c 0.21962,1.030049 1.219852,1.806996 2.427478,1.807837 l 35.002553,0.02335 c 1.380141,9.59e-4 2.514456,-1.01026 2.530995,-2.258195 l 0.238984,-18.082674 0.03123,-2.295476 0.02795,-2.225696 0.03072,-2.259578 c 0.01653,-1.247934 -1.089715,-2.261997 -2.469858,-2.26296 l -12.501696,-0.0089 c -1.380143,-9.59e-4 -2.51416,1.012259 -2.530701,2.260194 0,0 -0.351332,2.0724 -2.52904,2.258212 l -0.41792,4.18e-4 -17.084336,-0.01207 c -1.380143,-9.59e-4 -2.513943,0.974363 -2.530484,2.222298 l -0.270212,20.37816 c -0.0021,0.155992 0.01296,0.30799 0.04434,0.455139 z"
             style="fill:#52a6ff;fill-opacity:1;stroke-width:0.95832026" /></g></g></g><g
       id="g20-2"
       style="fill:#ffaaaa" /></g></svg>