<?xml version="1.0" encoding="UTF-8" standalone="no"?>
<svg
   xmlns:dc="http://purl.org/dc/elements/1.1/"
   xmlns:cc="http://creativecommons.org/ns#"
   xmlns:rdf="http://www.w3.org/1999/02/22-rdf-syntax-ns#"
   xmlns:svg="http://www.w3.org/2000/svg"
   xmlns="http://www.w3.org/2000/svg"
   xmlns:sodipodi="http://sodipodi.sourceforge.net/DTD/sodipodi-0.dtd"
   xmlns:inkscape="http://www.inkscape.org/namespaces/inkscape"
   enable-background="new 0 0 64 64"
   height="64px"
   version="1.1"
   viewBox="0 0 64 64"
   width="64px"
   xml:space="preserve"
   id="svg24"
   sodipodi:docname="default-network.svg"
   inkscape:version="0.92.4 (unknown)"><metadata
     id="metadata30"><rdf:RDF><cc:Work
         rdf:about=""><dc:format>image/svg+xml</dc:format><dc:type
           rdf:resource="http://purl.org/dc/dcmitype/StillImage" /><dc:title></dc:title></cc:Work></rdf:RDF></metadata><defs
     id="defs28" /><sodipodi:namedview
     pagecolor="#ffffff"
     bordercolor="#666666"
     borderopacity="1"
     objecttolerance="10"
     gridtolerance="10"
     guidetolerance="10"
     inkscape:pageopacity="0"
     inkscape:pageshadow="2"
     inkscape:window-width="1366"
     inkscape:window-height="717"
     id="namedview26"
     showgrid="false"
     inkscape:zoom="10.429825"
     inkscape:cx="0.16875852"
     inkscape:cy="24.593732"
     inkscape:window-x="0"
     inkscape:window-y="23"
     inkscape:window-maximized="1"
     inkscape:current-layer="svg24" /><g
     id="Layer_2" /><g
     transform="matrix(0.00967697,0.88749906,-1.1343839,0.0401888,69.233236,-0.44149638)"
     id="Layer_1-5-3"
     style="fill:#6c5353"><g
       id="g4-3-6"
       style="fill:#6c5353" /><g
       style="opacity:0.2;fill:#6c5353"
       id="g10-5-7"><g
         id="g8-6-5"
         style="fill:#6c5353" /></g><g
       id="g16-2-3"
       style="fill:#6c5353"><g
         id="g14-9-5"
         style="fill:#6c5353" /></g><g
       id="g20-2-2"
       style="fill:#6c5353" /></g><g
     transform="matrix(0.00767154,0.91708398,-0.8992975,-0.13656569,57.978555,7.7253925)"
     id="Layer_1-5"
     style="fill:#ffaaaa"><g
       id="g4-3"
       style="fill:#ffaaaa" /><g
       style="opacity:0.2;fill:#ffaaaa"
       id="g10-5"><g
         id="g8-6"
         style="fill:#ffaaaa" /></g><g
       id="g16-2"
       style="fill:#ffaaaa"><g
         id="g14-9"
         style="fill:#ffaaaa"><g
           id="g886"
           transform="translate(0.17255536,1.383715)"><path
             inkscape:connector-curvature="0"
             id="path12-1-6"
             transform="matrix(-0.4186481,-1.4062341,0.97060694,0.00827985,7.7625292,72.108869)"
             d="m 18.978516,12.089844 c -1.006814,0.06623 -1.759264,0.950738 -1.75,2.158203 l 0.269531,34.998047 c 0.01059,1.379959 1.010276,2.66482 2.232422,2.867187 l 17.708984,2.931641 2.248047,0.373047 2.179688,0.359375 2.21289,0.367187 c 1.222145,0.202367 2.205899,-0.752853 2.195313,-2.132812 l -0.0957,-12.5 c -0.01059,-1.37996 -1.01223,-2.664821 -2.234376,-2.867188 0,0 -2.032279,-0.659921 -2.232421,-2.865234 l -0.0039,-0.417969 -0.130859,-17.082031 c -0.01059,-1.37996 -0.97512,-2.658961 -2.197266,-2.861328 L 19.423828,12.113281 c -0.152768,-0.0253 -0.301482,-0.0329 -0.445312,-0.02344 z"
             style="fill:#527bff;stroke-width:0.94769651;fill-opacity:1" /><path
             inkscape:connector-curvature="0"
             id="path12-1"
             d="m 18.978516,12.089844 c -1.006814,0.06623 -1.759264,0.950738 -1.75,2.158203 l 0.269531,34.998047 c 0.01059,1.379959 1.010276,2.66482 2.232422,2.867187 l 17.708984,2.931641 2.248047,0.373047 2.179688,0.359375 2.21289,0.367187 c 1.222145,0.202367 2.205899,-0.752853 2.195313,-2.132812 l -0.0957,-12.5 c -0.01059,-1.37996 -1.01223,-2.664821 -2.234376,-2.867188 0,0 -2.032279,-0.659921 -2.232421,-2.865234 l -0.0039,-0.417969 -0.130859,-17.082031 c -0.01059,-1.37996 -0.97512,-2.658961 -2.197266,-2.861328 L 19.423828,12.113281 c -0.152768,-0.0253 -0.301482,-0.0329 -0.445312,-0.02344 z"
             style="fill:#52a6ff;stroke-width:0.94769651;fill-opacity:1"
             transform="matrix(-0.16579871,-1.1133934,1.0013014,0.00854169,3.0908213,67.060513)" /></g></g></g><g
       id="g20-2"
       style="fill:#ffaaaa" /></g><g
     transform="matrix(1.1428571,0,0,1.1428571,12.537437,38.029474)"
     style="fill:#4d4d4d"
     id="g10"><path
       inkscape:connector-curvature="0"
       d="M 14.8374,6.0785599 C 13.127655,4.0440642 10.630762,2.877652 8,2.877652 c -2.6434605,0 -5.1399415,1.1664122 -6.8501212,3.201 -0.22716078,0.2701909 -0.19220593,0.6733384 0.07842,0.9 0.1197341,0.1 0.2650667,0.15 0.4103764,0.15 0.182392,0 0.3635258,-0.077573 0.490077,-0.2280072 1.4659993,-1.7442653 3.6061831,-2.7448936 5.8712253,-2.7448936 2.2650415,0 4.4052255,1 5.8712015,2.7444818 0.126574,0.150434 0.307685,0.228 0.4901,0.228 0.145333,0 0.291077,-0.049023 0.410811,-0.15 0.270191,-0.226749 0.305169,-0.6303082 0.07801,-0.9 z"
       id="path2"
       style="fill:#4d4d4d" /><path
       inkscape:connector-curvature="0"
       d="m 8,5.5853035 c -1.8883168,0 -3.6713801,0.8331287 -4.8927409,2.2859282 -0.2271379,0.2701909 -0.192206,0.6733384 0.07842,0.9004763 0.1197341,0.1005638 0.2654784,0.1500221 0.410811,0.1500221 0.182392,0 0.3635258,-0.077573 0.4896653,-0.2280071 0.9771802,-1.1629808 2.4039694,-1.8299367 3.9138679,-1.8299367 1.5098984,0 2.9366647,0.6669559 3.9142797,1.8299367 0.126574,0.1508686 0.307685,0.2280071 0.489642,0.2280071 0.145333,0 0.291077,-0.049023 0.410834,-0.1500221 0.270603,-0.2271379 0.305535,-0.6306971 0.07842,-0.9004763 C 11.658464,6.4184551 9.8754009,5.5853035 8,5.5853035 Z"
       id="path4"
       style="fill:#4d4d4d" /><path
       inkscape:connector-curvature="0"
       d="m 8,8.3974449 c -1.1335849,0 -2.2036882,0.499891 -2.9358185,1.3713831 -0.2271607,0.270191 -0.1922059,0.673338 0.07842,0.900476 0.1197341,0.100564 0.2654784,0.15 0.410811,0.15 0.182392,0 0.3635258,-0.07755 0.4896652,-0.227985 0.4888189,-0.581719 1.2021906,-0.9154142 1.9569226,-0.9154142 0.7547319,0 1.4681265,0.3336952 1.9569225,0.9154142 0.1265742,0.150869 0.3076852,0.227985 0.4896652,0.227985 0.145332,0 0.291077,-0.049 0.410811,-0.15 0.270625,-0.227161 0.305557,-0.630308 0.07842,-0.900476 C 10.190974,8.8973359 9.120871,8.3974449 8,8.3974449 Z"
       id="path6"
       style="fill:#4d4d4d" /><circle
       cx="8"
       cy="12"
       r="1"
       id="circle8"
       style="fill:#4d4d4d" /></g></svg>